{
    "type": "object",
    "properties": {
        "StrNombres": {
            "type": "string",
            "description": "Nombres de las personas titulares del documento."
        },
        "StrPrimerApellido": {
            "type": "string",
            "description": "Primer apellido de la persona titular del documento."
        },
        "StrSegundoApellido": {
            "type": "string",
            "description": "Segundo Apellido de la persona titular del documento."
        },
        "StrOtrosApellidos": {
            "type": "string",
            "description": "Otros apellidos de la persona titular del documento."
        },
        "DateFechaNacimiento": {
            "type": "string",
            "format": "date",
            "description": "Día, Mes y Año del nacimiento de la persona titular del documento."
        },
        "StrNumeroDocumento": {
            "type": "string",
            "description": "Número de documento de identificacion de la persona titular del documento."
        },
        "StrCorreoElecronico": {
            "type": "string",
            "description": "correo electrónico de contacto con el titular o apoderado del documento."
        },
        "StrCodigoAgetic": {
            "type": "string",
            "description": "Número de trámite correspondiente a una solicitud en el sistema de la apostilla."
        }
    },
    "example": {
        "StrNombres": "JHON JAIRO",
        "StrPrimerApellido": "CASTRO",
        "StrSegundoApellido": "CABELLO",
        "StrOtrosApellidos": "",
        "DateFechaNacimiento": "11/04/2006",
        "StrNumeroDocumento": "13459701",
        "StrCorreoElecronico": "jtroche@gmail.com",
        "StrCodigoAgetic": "1"
      }
}