{
    "type": "object",
    "properties": {
        "count": {
            "type": "integer",
            "format": "int32",
            "description": "Cantidad de registros."
        },
        "documentos": {
            "type": "array",
            "items": {
                "type": "object",
                "properties": {
                    "nombre": {
                        "type": "string",
                        "description": "Nombre del tramite perteneciente a la institución."
                    },
                    "descripcion": {
                        "type": "string",
                        "description": "Descripción de tramite obtenida desde el portal único de tramite."
                    },
                    "codigo_portal": {
                        "type": "string",
                        "description": "Numero de identificación correspondiente al portal único de tramite."
                    }
                }
            }
        }
    },
    "example": {
        "count": 1,
        "rows": [{
            "nombre": "Tramite 1",
            "descripcion": "Descripción de tramite obtenida desde el portal único de tramite.",
            "codigo_portal": "1223"
        }]
    }
}